%YAML 1.1
%TAG !u! tag:unity3d.com,2011:
--- !u!1 &198952
GameObject:
  m_ObjectHideFlags: 0
  m_CorrespondingSourceObject: {fileID: 0}
  m_PrefabInstance: {fileID: 0}
  m_PrefabAsset: {fileID: 0}
  serializedVersion: 6
  m_Component:
  - component: {fileID: 473066}
  - component: {fileID: 11401692}
  - component: {fileID: 11443774}
  m_Layer: 0
  m_Name: GameManager
  m_TagString: Untagged
  m_Icon: {fileID: 0}
  m_NavMeshLayer: 0
  m_StaticEditorFlags: 0
  m_IsActive: 1
--- !u!4 &473066
Transform:
  m_ObjectHideFlags: 0
  m_CorrespondingSourceObject: {fileID: 0}
  m_PrefabInstance: {fileID: 0}
  m_PrefabAsset: {fileID: 0}
  m_GameObject: {fileID: 198952}
  m_LocalRotation: {x: 0, y: 0, z: 0, w: 1}
  m_LocalPosition: {x: 0, y: 0, z: 0}
  m_LocalScale: {x: 1, y: 1, z: 1}
  m_Children: []
  m_Father: {fileID: 0}
  m_RootOrder: 0
  m_LocalEulerAnglesHint: {x: 0, y: 0, z: 0}
--- !u!114 &11401692
MonoBehaviour:
  m_ObjectHideFlags: 0
  m_CorrespondingSourceObject: {fileID: 0}
  m_PrefabInstance: {fileID: 0}
  m_PrefabAsset: {fileID: 0}
  m_GameObject: {fileID: 198952}
  m_Enabled: 1
  m_EditorHideFlags: 0
  m_Script: {fileID: 11500000, guid: 5bbb417fd29e7744dbcc5c2074257fe5, type: 3}
  m_Name: 
  m_EditorClassIdentifier: 
  seed: 4232323
  ForPlanner: 0
  numEnemies: 0
--- !u!114 &11443774
MonoBehaviour:
  m_ObjectHideFlags: 0
  m_CorrespondingSourceObject: {fileID: 0}
  m_PrefabInstance: {fileID: 0}
  m_PrefabAsset: {fileID: 0}
  m_GameObject: {fileID: 198952}
  m_Enabled: 1
  m_EditorHideFlags: 0
  m_Script: {fileID: 11500000, guid: f63a92ac2865f7447ba6e5bf48d914f1, type: 3}
  m_Name: 
  m_EditorClassIdentifier: 
  columns: 30
  rows: 30
  wallCount:
    minimum: 10
    maximum: 12
  leverCount:
    minimum: 1
    maximum: 5
  exit: {fileID: 107778, guid: ac1aa2771db6cdc4782d499198bbe9d5, type: 3}
  floorTile: {fileID: 123610, guid: befa066c0e5a3404ba44cdf7337916d5, type: 3}
  wallTile: {fileID: 159668, guid: 51b1b2532813ce048bfd3d96ba14c10e, type: 3}
  leverTile: {fileID: 195052, guid: b0fbea2b3765c7e47a4e1c33efea9c59, type: 3}
  enemyTile: {fileID: 1921221125431850, guid: 86f4ec7971d870a46b452f4de4a0ccb0, type: 3}
  outerWallTile: {fileID: 142142, guid: 5bf942c633c9e4b4687ae0d754793e3f, type: 3}
